3 Results – nypd-arrest-visualization
…
  mutate(PERP_RACE = case_when(
    PERP_RACE %in% c("UNKNOWN", "AMERICAN INDIAN/ALASKAN NATIVE") ~ "Others",
    TRUE ~ PERP_RACE
  )) |> 
  group_by(PERP_SEX, PERP_RACE, AGE_GROUP, LAW_CAT_CD) %>%
  summarise(Count = n(), .groups = "drop") %>%
  rename(
    Sex = PERP_SEX,
    Race = PERP_RACE,
    AgeGroup = AGE_GROUP,
    CrimeType = LAW_CAT_CD
  )
aggregated_data

# A tibble: 160 × 5
   Sex   Race                     AgeGroup CrimeType   Count
   <chr> <chr>                    <chr>    <chr>       <int>
 1 F     ASIAN / PACIFIC ISLANDER 18-24    Felony         93
 2 F     ASIAN / PACIFIC ISLANDER 18-24    Misdemeanor   195
 3 F     ASIAN / PACIFIC ISLANDER 18-24    Violation       3
 4 F     ASIAN / PACIFIC ISLANDER 25-44    Felony        334
 5 F     ASIAN / PACIFIC ISLANDER 25-44    Misdemeanor   587
 6 F     ASIAN / PACIFIC ISLANDER 25-44    Violation      27
 7 F     ASIAN / PACIFIC ISLANDER 45-64    Felony        187
 8 F     ASIAN / PACIFIC ISLANDER 45-64    Misdemeanor   342
 9 F     ASIAN / PACIFIC ISLANDER 45-64    Violation       2
10 F     ASIAN / PACIFIC ISLANDER 65+      Felony         33
# ℹ 150 more rows
…
